{
  "project_info": {
    "project_number": "321197428675",
    "firebase_url": "https://pingchat-appv2.firebaseio.com",
    "project_id": "pingchat-appv2",
    "storage_bucket": "pingchat-appv2.appspot.com"
  },
  "client": [
    {
      "client_info": {
        "mobilesdk_app_id": "1:321197428675:android:7f4a0e4af6920d69",
        "android_client_info": {
          "package_name": "com.app.pingchat"
        }
      },
      "oauth_client": [
        {
          "client_id": "321197428675-2abvav41pdfbrf1p399n2qedhooc4994.apps.googleusercontent.com",
          "client_type": 1,
          "android_info": {
            "package_name": "com.app.pingchat",
            "certificate_hash": "0558574c71ce923dd05c273a63920b9f96b84831"
          }
        },
        {
          "client_id": "321197428675-ajiukjh3nb1algc0lh3pmucqsh7ah011.apps.googleusercontent.com",
          "client_type": 1,
          "android_info": {
            "package_name": "com.app.pingchat",
            "certificate_hash": "cae4cd9b44e0651547cdb1a5103c07759f03ddcb"
          }
        },
        {
          "client_id": "321197428675-cafjaumo4rg6qscvks123n2k0krsjjhg.apps.googleusercontent.com",
          "client_type": 1,
          "android_info": {
            "package_name": "com.app.pingchat",
            "certificate_hash": "8e8f19bea30fc520dd81e67f3b3a3154f0552f92"
          }
        },
        {
          "client_id": "321197428675-4gvf69puuv128rkooc3qebqmndhempm7.apps.googleusercontent.com",
          "client_type": 3
        }
      ],
      "api_key": [
        {
          "current_key": "AIzaSyBo9sws7fAZPxH1taKbDHOVnfXl0ARnqK0"
        }
      ],
      "services": {
        "appinvite_service": {
          "other_platform_oauth_client": [
            {
              "client_id": "321197428675-4gvf69puuv128rkooc3qebqmndhempm7.apps.googleusercontent.com",
              "client_type": 3
            },
            {
              "client_id": "321197428675-p2670022ar6boi5p0tm0apo9m6800v4k.apps.googleusercontent.com",
              "client_type": 2,
              "ios_info": {
                "bundle_id": "BetaMajuDev.PingChatApp"
              }
            }
          ]
        }
      }
    }
  ],
  "configuration_version": "1"
}